<svg xmlns="http://www.w3.org/2000/svg" width="26" height="26" viewBox="0 0 26 26">
  <g id="noun_report_2612090" transform="translate(-0.5 -0.5)">
    <g id="Group_71" data-name="Group 71" transform="translate(0.5 0.5)">
      <g id="Group_70" data-name="Group 70">
        <g id="Group_69" data-name="Group 69">
          <g id="Group_68" data-name="Group 68">
            <path id="Path_234" data-name="Path 234" d="M13.5,24.369A10.869,10.869,0,1,1,24.369,13.5,10.868,10.868,0,0,1,13.5,24.369M13.5.5a13,13,0,1,1-13,13A13,13,0,0,1,13.5.5Zm0,15.073a1.859,1.859,0,1,0,1.86,1.86A1.86,1.86,0,0,0,13.5,15.573Zm0-9.177a2.379,2.379,0,0,0-2.367,2.367c0,.063,0,.13.009.2a2.334,2.334,0,0,0,.074.417q.549,2.021,1.1,4.043a1.215,1.215,0,0,0,2.37-.023l1.1-4.018a2.586,2.586,0,0,0,.069-.409c.006-.073.009-.144.009-.21A2.379,2.379,0,0,0,13.5,6.4Z" transform="translate(-0.5 -0.5)" fill="#e63462" fill-rule="evenodd"/>
          </g>
        </g>
      </g>
    </g>
  </g>
</svg>
