<svg xmlns="http://www.w3.org/2000/svg" width="79.6" height="65.9" viewBox="0 0 79.6 65.9">
  <g id="icon_logout" transform="translate(-11 -17)">
    <path id="Path_248" data-name="Path 248" d="M73,31.5A4.765,4.765,0,0,0,65,35v3.3A4.7,4.7,0,0,1,60.3,43H56.8a4.7,4.7,0,0,0-4.7,4.7v4.5a4.7,4.7,0,0,0,4.7,4.7h3.5A4.7,4.7,0,0,1,65,61.6v3.3a4.765,4.765,0,0,0,8,3.5L89.1,53.3a4.717,4.717,0,0,0,0-6.9Z" fill="#63a1f9"/>
    <path id="Path_249" data-name="Path 249" d="M48.3,57H39.8a4.7,4.7,0,0,1-4.7-4.7V47.8a4.7,4.7,0,0,1,4.7-4.7h8.5A4.7,4.7,0,0,0,53,38.4V21.7A4.7,4.7,0,0,0,48.3,17H15.7A4.7,4.7,0,0,0,11,21.7V78.2a4.7,4.7,0,0,0,4.7,4.7H48.2a4.7,4.7,0,0,0,4.7-4.7V61.7A4.549,4.549,0,0,0,48.3,57Z" fill="#63a1f9"/>
  </g>
</svg>
