<svg xmlns="http://www.w3.org/2000/svg" width="33.93" height="18.662" viewBox="0 0 33.93 18.662">
  <g id="noun_movie_ticket_1780027" data-name="noun_movie ticket_1780027" transform="translate(-10 -28)">
    <g id="Group_83" data-name="Group 83" transform="translate(10 28)">
      <path id="Path_241" data-name="Path 241" d="M10,980.362v4.665a4.665,4.665,0,0,1,0,9.331v4.665H32.479V980.362H10Zm24.175,0v18.662H43.93v-4.665a4.665,4.665,0,1,1,0-9.331v-4.665H34.175Z" transform="translate(-10 -980.362)" fill="#63a1f9"/>
    </g>
  </g>
</svg>
