<svg xmlns="http://www.w3.org/2000/svg" width="28.13" height="26.031" viewBox="0 0 28.13 26.031">
  <g id="noun_date_744186" transform="translate(-16.5 -19)">
    <path id="Path_246" data-name="Path 246" d="M40.642,21.1H38.332V19.63a.63.63,0,0,0-1.26,0V21.1H24.057V19.63a.63.63,0,1,0-1.26,0V21.1H20.489A4.014,4.014,0,0,0,16.5,25.088V41.042a4.014,4.014,0,0,0,3.989,3.989H40.642a4.014,4.014,0,0,0,3.989-3.989V25.088A3.987,3.987,0,0,0,40.642,21.1Zm-20.153,1.26H22.8v3.149a.63.63,0,1,0,1.26,0V22.359H37.073v3.149a.63.63,0,0,0,1.26,0V22.359h2.309a2.724,2.724,0,0,1,2.729,2.729v4.366H17.76V25.088A2.724,2.724,0,0,1,20.489,22.359ZM40.642,43.771H20.489a2.724,2.724,0,0,1-2.729-2.729V30.714H43.371V41.042A2.724,2.724,0,0,1,40.642,43.771Z" fill="#fff"/>
  </g>
</svg>
