<svg xmlns="http://www.w3.org/2000/svg" width="16" height="16.759" viewBox="0 0 16 16.759">
  <g id="Group_7" data-name="Group 7" transform="translate(-175.5 -710.5)">
    <line id="Line_3" data-name="Line 3" x2="16" transform="translate(175.5 718.879)" fill="none" stroke="#0e1826" stroke-width="2"/>
    <line id="Line_4" data-name="Line 4" y2="16.759" transform="translate(183.5 710.5)" fill="none" stroke="#0e1826" stroke-width="2"/>
  </g>
</svg>
