<svg xmlns="http://www.w3.org/2000/svg" width="26.164" height="21.556" viewBox="0 0 26.164 21.556">
  <g id="noun_Map_2648346" transform="translate(-1.999 -3.981)">
    <path id="Path_247" data-name="Path 247" d="M27.769,4.176a.934.934,0,0,0-.841-.131L18.893,6.8,10.839,4.111A.934.934,0,0,0,10.409,4h0a.934.934,0,0,0-.364,0L2.654,6.8A.934.934,0,0,0,2,7.736V24.555a.941.941,0,0,0,1.261.878l7.148-2.691,8.334,2.747a.934.934,0,0,0,.589,0l8.194-2.8a.934.934,0,0,0,.635-.934V4.933a.934.934,0,0,0-.392-.757ZM11.343,6.251l6.54,2.14V23.2l-6.54-2.121ZM3.869,8.381,9.475,6.26V21.1L3.869,23.2ZM26.293,21.088l-6.54,2.233V8.437l6.54-2.205Z" transform="translate(0)" fill="#fff"/>
  </g>
</svg>
