<svg xmlns="http://www.w3.org/2000/svg" width="12.293" height="26.037" viewBox="0 0 12.293 26.037">
  <g id="noun_Arrow_1813676" transform="translate(-28.972 -6.928)">
    <g id="Group_2" data-name="Group 2" transform="translate(28.972 6.928)">
      <path id="Path_214" data-name="Path 214" d="M28.974,972.366a.923.923,0,0,0,.219.548L39.716,985a.861.861,0,0,0,.843.307.888.888,0,0,0,.666-.616.929.929,0,0,0-.2-.9L31.03,972.309l9.993-11.485a.929.929,0,0,0,.2-.9.888.888,0,0,0-.666-.616.861.861,0,0,0-.843.307L29.193,971.7a.926.926,0,0,0-.219.661Z" transform="translate(-28.972 -959.29)" fill="#fff"/>
    </g>
  </g>
</svg>
