<svg xmlns="http://www.w3.org/2000/svg" width="26.914" height="28.723" viewBox="0 0 26.914 28.723">
  <g id="noun_Settings_3144389" transform="translate(-4.034 -5)">
    <g id="Group_17" data-name="Group 17" transform="translate(4.034 5)">
      <path id="Path_215" data-name="Path 215" d="M34.382,23.29l-1.149-.95A2.881,2.881,0,0,1,32.2,19.98V18.743a2.881,2.881,0,0,1,1.034-2.36l1.149-.95a1.441,1.441,0,0,0,.345-1.828l-1.666-2.878a1.435,1.435,0,0,0-1.738-.619l-1.436.518a2.867,2.867,0,0,1-2.556-.273,7.867,7.867,0,0,0-1.063-.619,2.878,2.878,0,0,1-1.522-2.087L24.5,6.209A1.437,1.437,0,0,0,23.066,5h-3.3a1.437,1.437,0,0,0-1.436,1.209l-.244,1.439a2.878,2.878,0,0,1-1.465,2.087,7.863,7.863,0,0,0-1.063.619A2.867,2.867,0,0,1,13,10.627l-1.436-.518a1.435,1.435,0,0,0-1.709.619L8.187,13.605a1.441,1.441,0,0,0,.345,1.828l1.149.95a2.881,2.881,0,0,1,1.034,2.36V19.98a2.881,2.881,0,0,1-1.034,2.36l-1.149.95a1.441,1.441,0,0,0-.345,1.828L9.853,28a1.435,1.435,0,0,0,1.738.619l1.436-.518a2.867,2.867,0,0,1,2.556.273,7.863,7.863,0,0,0,1.063.619,2.878,2.878,0,0,1,1.522,2.087l.244,1.439a1.437,1.437,0,0,0,1.436,1.209h3.3a1.437,1.437,0,0,0,1.436-1.209l.244-1.439a2.878,2.878,0,0,1,1.522-2.087,7.867,7.867,0,0,0,1.063-.619,2.867,2.867,0,0,1,2.556-.273l1.436.518A1.435,1.435,0,0,0,33.061,28l1.666-2.878A1.441,1.441,0,0,0,34.382,23.29Zm-12.925.389A4.313,4.313,0,1,1,24.5,22.414,4.313,4.313,0,0,1,21.457,23.679Z" transform="translate(-8 -5)" fill="#63a1f9"/>
    </g>
  </g>
</svg>
